<svg width="24" height="24" viewBox="0 0 24 24" fill="none" xmlns="http://www.w3.org/2000/svg">
<path d="M3.34219 6.67031C3.37031 6.39375 3.2625 6.11719 3.05625 5.92969L0.942188 3.37969V3H7.51406L12.5953 14.1422L17.0625 3H23.3297V3.37969L21.5203 5.11406C21.3656 5.23125 21.2859 5.42812 21.3188 5.62031V18.3703C21.2859 18.5625 21.3656 18.7594 21.5203 18.8766L23.2875 20.6109V20.9906H14.3953V20.6109L16.2281 18.8344C16.4063 18.6562 16.4063 18.6 16.4063 18.3281V8.025L11.3109 20.9578H10.6219L4.69688 8.025V16.6922C4.64531 17.0578 4.76719 17.4234 5.025 17.6859L7.40625 20.5734V20.9531H0.65625V20.5781L3.0375 17.6859C3.29063 17.4234 3.40781 17.0531 3.34219 16.6922V6.67031Z" fill="white"/>
<mask id="mask0_2034_125" style="mask-type:luminance" maskUnits="userSpaceOnUse" x="0" y="3" width="24" height="18">
<path d="M3.34219 6.67031C3.37031 6.39375 3.2625 6.11719 3.05625 5.92969L0.942188 3.37969V3H7.51406L12.5953 14.1422L17.0625 3H23.3297V3.37969L21.5203 5.11406C21.3656 5.23125 21.2859 5.42812 21.3188 5.62031V18.3703C21.2859 18.5625 21.3656 18.7594 21.5203 18.8766L23.2875 20.6109V20.9906H14.3953V20.6109L16.2281 18.8344C16.4063 18.6562 16.4063 18.6 16.4063 18.3281V8.025L11.3109 20.9578H10.6219L4.69688 8.025V16.6922C4.64531 17.0578 4.76719 17.4234 5.025 17.6859L7.40625 20.5734V20.9531H0.65625V20.5781L3.0375 17.6859C3.29063 17.4234 3.40781 17.0531 3.34219 16.6922V6.67031Z" fill="white"/>
</mask>
<g mask="url(#mask0_2034_125)">
<rect width="24" height="24" fill="white"/>
</g>
</svg>
