<svg width="74" height="24" viewBox="0 0 74 24" fill="none" xmlns="http://www.w3.org/2000/svg">
<path d="M4.60657 7.004C5.5119 7.004 6.25857 7.116 6.84657 7.34C7.43457 7.55467 7.87324 7.886 8.16257 8.334C8.4519 8.77267 8.59657 9.328 8.59657 10C8.59657 10.4573 8.5079 10.8587 8.33057 11.204C8.16257 11.54 7.9339 11.8293 7.64457 12.072C7.36457 12.3053 7.06124 12.4967 6.73457 12.646L9.67457 17H7.32257L4.94257 13.164H3.80857V17H1.69457V7.004H4.60657ZM4.45257 8.74H3.80857V11.442H4.49457C4.96124 11.442 5.33924 11.3907 5.62857 11.288C5.9179 11.1853 6.1279 11.0313 6.25857 10.826C6.38924 10.6113 6.45457 10.3547 6.45457 10.056C6.45457 9.73867 6.3799 9.48667 6.23057 9.3C6.09057 9.104 5.87124 8.964 5.57257 8.88C5.28324 8.78667 4.9099 8.74 4.45257 8.74ZM16.6908 17H10.9368V7.004H16.6908V8.74H13.0508V10.938H16.4388V12.674H13.0508V15.25H16.6908V17ZM22.9987 17L20.5907 9.16H20.5347C20.5441 9.34667 20.5581 9.62667 20.5767 10C20.5954 10.3733 20.6141 10.7747 20.6327 11.204C20.6514 11.624 20.6607 12.0067 20.6607 12.352V17H18.7707V7.004H21.6547L24.0207 14.648H24.0627L26.5687 7.004H29.4527V17H27.4787V12.268C27.4787 11.9507 27.4834 11.5867 27.4927 11.176C27.5114 10.7653 27.5254 10.378 27.5347 10.014C27.5534 9.64067 27.5674 9.36067 27.5767 9.174H27.5207L24.9447 17H22.9987ZM35.1698 7.004C36.4578 7.004 37.3958 7.284 37.9838 7.844C38.5811 8.39467 38.8798 9.15533 38.8798 10.126C38.8798 10.5647 38.8144 10.9847 38.6838 11.386C38.5531 11.778 38.3338 12.1327 38.0258 12.45C37.7271 12.758 37.3304 13.0007 36.8358 13.178C36.3411 13.3553 35.7298 13.444 35.0018 13.444H34.0918V17H31.9778V7.004H35.1698ZM35.0578 8.74H34.0918V11.708H34.7918C35.1931 11.708 35.5384 11.6567 35.8278 11.554C36.1171 11.4513 36.3411 11.288 36.4998 11.064C36.6584 10.84 36.7378 10.5507 36.7378 10.196C36.7378 9.70133 36.6024 9.33733 36.3318 9.104C36.0611 8.86133 35.6364 8.74 35.0578 8.74ZM40.7688 17V7.004H42.8828V15.25H46.9428V17H40.7688ZM54.8028 17L54.0748 14.62H50.4348L49.7068 17H47.4248L50.9528 6.962H53.5428L57.0848 17H54.8028ZM52.8428 10.518C52.7961 10.3593 52.7355 10.1587 52.6608 9.916C52.5861 9.67333 52.5115 9.426 52.4368 9.174C52.3621 8.922 52.3015 8.70267 52.2548 8.516C52.2081 8.70267 52.1428 8.936 52.0588 9.216C51.9841 9.48667 51.9095 9.748 51.8348 10C51.7695 10.2427 51.7181 10.4153 51.6808 10.518L50.9668 12.842H53.5708L52.8428 10.518ZM62.3194 8.628C61.918 8.628 61.5587 8.70733 61.2414 8.866C60.9334 9.02467 60.672 9.25333 60.4574 9.552C60.2427 9.84133 60.0794 10.196 59.9674 10.616C59.8647 11.036 59.8134 11.5073 59.8134 12.03C59.8134 12.7393 59.8974 13.346 60.0654 13.85C60.2427 14.3447 60.518 14.7227 60.8914 14.984C61.2647 15.2453 61.7407 15.376 62.3194 15.376C62.73 15.376 63.136 15.3293 63.5374 15.236C63.9481 15.1427 64.3914 15.012 64.8674 14.844V16.622C64.4287 16.7993 63.9947 16.93 63.5654 17.014C63.136 17.098 62.6554 17.14 62.1234 17.14C61.0967 17.14 60.2474 16.93 59.5754 16.51C58.9127 16.0807 58.4227 15.4833 58.1054 14.718C57.788 13.9433 57.6294 13.0427 57.6294 12.016C57.6294 11.26 57.732 10.5693 57.9374 9.944C58.1427 9.30933 58.4414 8.76333 58.8334 8.306C59.2347 7.84867 59.7247 7.494 60.3034 7.242C60.8914 6.99 61.5634 6.864 62.3194 6.864C62.814 6.864 63.3087 6.92933 63.8034 7.06C64.3074 7.18133 64.7881 7.34933 65.2454 7.564L64.5594 9.286C64.186 9.10867 63.808 8.95467 63.4254 8.824C63.052 8.69333 62.6834 8.628 62.3194 8.628ZM72.7454 17H66.9914V7.004H72.7454V8.74H69.1054V10.938H72.4934V12.674H69.1054V15.25H72.7454V17Z" fill="#A0A0A0"/>
</svg>
