<svg width="50" height="50" viewBox="0 0 50 50" fill="none" xmlns="http://www.w3.org/2000/svg">
<path d="M24.9997 47.3958C24.4997 47.3958 23.9997 47.3334 23.5205 47.1876C12.708 44.2084 4.87466 34.1042 4.87466 23.1458V14C4.87466 11.6666 6.56218 9.14589 8.72884 8.25006L20.333 3.5C23.3539 2.27083 26.6663 2.27083 29.6663 3.5L41.2705 8.25006C43.4372 9.14589 45.1247 11.6666 45.1247 14V23.1458C45.1247 34.0833 37.2705 44.1876 26.4788 47.1876C25.9997 47.3334 25.4997 47.3958 24.9997 47.3958ZM24.9997 5.72918C23.8122 5.72918 22.6455 5.95838 21.5205 6.41672L9.91636 11.1667C8.91636 11.5833 7.99966 12.9375 7.99966 14.0208V23.1667C7.99966 32.7292 14.8747 41.5626 24.3538 44.1876C24.7705 44.3126 25.2288 44.3126 25.6455 44.1876C35.1247 41.5626 41.9997 32.7292 41.9997 23.1667V14.0208C41.9997 12.9375 41.083 11.5833 40.083 11.1667L28.4789 6.41672C27.3539 5.95838 26.1872 5.72918 24.9997 5.72918Z" fill="white"/>
<path d="M25 27.6043C21.8333 27.6043 19.2708 25.0418 19.2708 21.8752C19.2708 18.7085 21.8333 16.146 25 16.146C28.1667 16.146 30.7292 18.7085 30.7292 21.8752C30.7292 25.0418 28.1667 27.6043 25 27.6043ZM25 19.271C23.5625 19.271 22.3958 20.4377 22.3958 21.8752C22.3958 23.3127 23.5625 24.4793 25 24.4793C26.4375 24.4793 27.6042 23.3127 27.6042 21.8752C27.6042 20.4377 26.4375 19.271 25 19.271Z" fill="white"/>
<path d="M25 33.854C24.1458 33.854 23.4375 33.1457 23.4375 32.2915V26.0415C23.4375 25.1873 24.1458 24.479 25 24.479C25.8542 24.479 26.5625 25.1873 26.5625 26.0415V32.2915C26.5625 33.1457 25.8542 33.854 25 33.854Z" fill="white"/>
</svg>
